Questão - 10/NOR/simulation/qsim/PortNOR.msim.vcd
$comment
	File created using the following command:
		vcd file PortNOR.msim.vcd -direction
$end
$date
	Thu Oct 04 09:35:17 2018
$end
$version
	ModelSim Version 10.5b
$end
$timescale
	1ps
$end

$scope module portnor_vhd_vec_tst $end
$var wire 1 ! Input_a $end
$var wire 1 " Input_b $end
$var wire 1 # Output $end

$scope module i1 $end
$var wire 1 $ gnd $end
$var wire 1 % vcc $end
$var wire 1 & unknown $end
$var wire 1 ' devoe $end
$var wire 1 ( devclrn $end
$var wire 1 ) devpor $end
$var wire 1 * ww_devoe $end
$var wire 1 + ww_devclrn $end
$var wire 1 , ww_devpor $end
$var wire 1 - ww_Input_a $end
$var wire 1 . ww_Input_b $end
$var wire 1 / ww_Output $end
$var wire 1 0 \~QUARTUS_CREATED_GND~I_combout\ $end
$var wire 1 1 \Input_b~input_o\ $end
$var wire 1 2 \Input_a~input_o\ $end
$var wire 1 3 \Output~0_combout\ $end
$var wire 1 4 \ALT_INV_Output~0_combout\ $end
$var wire 1 5 \ALT_INV_Input_a~input_o\ $end
$var wire 1 6 \ALT_INV_Input_b~input_o\ $end
$upscope $end
$upscope $end
$enddefinitions $end
#0
$dumpvars
0!
0"
1#
0$
1%
x&
1'
1(
1)
1*
1+
1,
0-
0.
1/
x0
01
02
03
14
15
16
$end
#10000
1!
1-
12
05
13
04
0/
0#
#20000
0!
1"
0-
1.
11
02
15
06
#30000
1!
1-
12
05
#40000
0!
0"
0-
0.
01
02
15
16
03
14
1/
1#
#50000
1!
1-
12
05
13
04
0/
0#
#60000
0!
1"
0-
1.
11
02
15
06
#70000
1!
1-
12
05
#80000
0!
0"
0-
0.
01
02
15
16
03
14
1/
1#
#90000
1!
1-
12
05
13
04
0/
0#
#100000
0!
1"
0-
1.
11
02
15
06
#110000
1!
1-
12
05
#120000
0!
0"
0-
0.
01
02
15
16
03
14
1/
1#
#130000
1!
1-
12
05
13
04
0/
0#
#140000
0!
1"
0-
1.
11
02
15
06
#150000
1!
1-
12
05
#160000
0!
0"
0-
0.
01
02
15
16
03
14
1/
1#
#170000
1!
1-
12
05
13
04
0/
0#
#180000
0!
1"
0-
1.
11
02
15
06
#190000
1!
1-
12
05
#200000
0!
0"
0-
0.
01
02
15
16
03
14
1/
1#
#210000
1!
1-
12
05
13
04
0/
0#
#220000
0!
1"
0-
1.
11
02
15
06
#230000
1!
1-
12
05
#240000
0!
0"
0-
0.
01
02
15
16
03
14
1/
1#
#250000
1!
1-
12
05
13
04
0/
0#
#260000
0!
1"
0-
1.
11
02
15
06
#270000
1!
1-
12
05
#280000
0!
0"
0-
0.
01
02
15
16
03
14
1/
1#
#290000
1!
1-
12
05
13
04
0/
0#
#300000
0!
1"
0-
1.
11
02
15
06
#310000
1!
1-
12
05
#320000
0!
0"
0-
0.
01
02
15
16
03
14
1/
1#
#330000
1!
1-
12
05
13
04
0/
0#
#340000
0!
1"
0-
1.
11
02
15
06
#350000
1!
1-
12
05
#360000
0!
0"
0-
0.
01
02
15
16
03
14
1/
1#
#370000
1!
1-
12
05
13
04
0/
0#
#380000
0!
1"
0-
1.
11
02
15
06
#390000
1!
1-
12
05
#400000
0!
0"
0-
0.
01
02
15
16
03
14
1/
1#
#410000
1!
1-
12
05
13
04
0/
0#
#420000
0!
1"
0-
1.
11
02
15
06
#430000
1!
1-
12
05
#440000
0!
0"
0-
0.
01
02
15
16
03
14
1/
1#
#450000
1!
1-
12
05
13
04
0/
0#
#460000
0!
1"
0-
1.
11
02
15
06
#470000
1!
1-
12
05
#480000
0!
0"
0-
0.
01
02
15
16
03
14
1/
1#
#490000
1!
1-
12
05
13
04
0/
0#
#500000
0!
1"
0-
1.
11
02
15
06
#510000
1!
1-
12
05
#520000
0!
0"
0-
0.
01
02
15
16
03
14
1/
1#
#530000
1!
1-
12
05
13
04
0/
0#
#540000
0!
1"
0-
1.
11
02
15
06
#550000
1!
1-
12
05
#560000
0!
0"
0-
0.
01
02
15
16
03
14
1/
1#
#570000
1!
1-
12
05
13
04
0/
0#
#580000
0!
1"
0-
1.
11
02
15
06
#590000
1!
1-
12
05
#600000
0!
0"
0-
0.
01
02
15
16
03
14
1/
1#
#610000
1!
1-
12
05
13
04
0/
0#
#620000
0!
1"
0-
1.
11
02
15
06
#630000
1!
1-
12
05
#640000
0!
0"
0-
0.
01
02
15
16
03
14
1/
1#
#650000
1!
1-
12
05
13
04
0/
0#
#660000
0!
1"
0-
1.
11
02
15
06
#670000
1!
1-
12
05
#680000
0!
0"
0-
0.
01
02
15
16
03
14
1/
1#
#690000
1!
1-
12
05
13
04
0/
0#
#700000
0!
1"
0-
1.
11
02
15
06
#710000
1!
1-
12
05
#720000
0!
0"
0-
0.
01
02
15
16
03
14
1/
1#
#730000
1!
1-
12
05
13
04
0/
0#
#740000
0!
1"
0-
1.
11
02
15
06
#750000
1!
1-
12
05
#760000
0!
0"
0-
0.
01
02
15
16
03
14
1/
1#
#770000
1!
1-
12
05
13
04
0/
0#
#780000
0!
1"
0-
1.
11
02
15
06
#790000
1!
1-
12
05
#800000
0!
0"
0-
0.
01
02
15
16
03
14
1/
1#
#810000
1!
1-
12
05
13
04
0/
0#
#820000
0!
1"
0-
1.
11
02
15
06
#830000
1!
1-
12
05
#840000
0!
0"
0-
0.
01
02
15
16
03
14
1/
1#
#850000
1!
1-
12
05
13
04
0/
0#
#860000
0!
1"
0-
1.
11
02
15
06
#870000
1!
1-
12
05
#880000
0!
0"
0-
0.
01
02
15
16
03
14
1/
1#
#890000
1!
1-
12
05
13
04
0/
0#
#900000
0!
1"
0-
1.
11
02
15
06
#910000
1!
1-
12
05
#920000
0!
0"
0-
0.
01
02
15
16
03
14
1/
1#
#930000
1!
1-
12
05
13
04
0/
0#
#940000
0!
1"
0-
1.
11
02
15
06
#950000
1!
1-
12
05
#960000
0!
0"
0-
0.
01
02
15
16
03
14
1/
1#
#970000
1!
1-
12
05
13
04
0/
0#
#980000
0!
1"
0-
1.
11
02
15
06
#990000
1!
1-
12
05
