Questão - 10/ULA/Shift 2L/simulation/qsim/Shifter2L.msim.vcd
$comment
	File created using the following command:
		vcd file Shifter2L.msim.vcd -direction
$end
$date
	Thu Oct 25 19:09:01 2018
$end
$version
	ModelSim Version 10.5b
$end
$timescale
	1ps
$end

$scope module shifter2l_vhd_vec_tst $end
$var wire 1 ! Input_a [15] $end
$var wire 1 " Input_a [14] $end
$var wire 1 # Input_a [13] $end
$var wire 1 $ Input_a [12] $end
$var wire 1 % Input_a [11] $end
$var wire 1 & Input_a [10] $end
$var wire 1 ' Input_a [9] $end
$var wire 1 ( Input_a [8] $end
$var wire 1 ) Input_a [7] $end
$var wire 1 * Input_a [6] $end
$var wire 1 + Input_a [5] $end
$var wire 1 , Input_a [4] $end
$var wire 1 - Input_a [3] $end
$var wire 1 . Input_a [2] $end
$var wire 1 / Input_a [1] $end
$var wire 1 0 Input_a [0] $end
$var wire 1 1 Output [15] $end
$var wire 1 2 Output [14] $end
$var wire 1 3 Output [13] $end
$var wire 1 4 Output [12] $end
$var wire 1 5 Output [11] $end
$var wire 1 6 Output [10] $end
$var wire 1 7 Output [9] $end
$var wire 1 8 Output [8] $end
$var wire 1 9 Output [7] $end
$var wire 1 : Output [6] $end
$var wire 1 ; Output [5] $end
$var wire 1 < Output [4] $end
$var wire 1 = Output [3] $end
$var wire 1 > Output [2] $end
$var wire 1 ? Output [1] $end
$var wire 1 @ Output [0] $end

$scope module i1 $end
$var wire 1 A gnd $end
$var wire 1 B vcc $end
$var wire 1 C unknown $end
$var wire 1 D devoe $end
$var wire 1 E devclrn $end
$var wire 1 F devpor $end
$var wire 1 G ww_devoe $end
$var wire 1 H ww_devclrn $end
$var wire 1 I ww_devpor $end
$var wire 1 J ww_Input_a [15] $end
$var wire 1 K ww_Input_a [14] $end
$var wire 1 L ww_Input_a [13] $end
$var wire 1 M ww_Input_a [12] $end
$var wire 1 N ww_Input_a [11] $end
$var wire 1 O ww_Input_a [10] $end
$var wire 1 P ww_Input_a [9] $end
$var wire 1 Q ww_Input_a [8] $end
$var wire 1 R ww_Input_a [7] $end
$var wire 1 S ww_Input_a [6] $end
$var wire 1 T ww_Input_a [5] $end
$var wire 1 U ww_Input_a [4] $end
$var wire 1 V ww_Input_a [3] $end
$var wire 1 W ww_Input_a [2] $end
$var wire 1 X ww_Input_a [1] $end
$var wire 1 Y ww_Input_a [0] $end
$var wire 1 Z ww_Output [15] $end
$var wire 1 [ ww_Output [14] $end
$var wire 1 \ ww_Output [13] $end
$var wire 1 ] ww_Output [12] $end
$var wire 1 ^ ww_Output [11] $end
$var wire 1 _ ww_Output [10] $end
$var wire 1 ` ww_Output [9] $end
$var wire 1 a ww_Output [8] $end
$var wire 1 b ww_Output [7] $end
$var wire 1 c ww_Output [6] $end
$var wire 1 d ww_Output [5] $end
$var wire 1 e ww_Output [4] $end
$var wire 1 f ww_Output [3] $end
$var wire 1 g ww_Output [2] $end
$var wire 1 h ww_Output [1] $end
$var wire 1 i ww_Output [0] $end
$var wire 1 j \Input_a[14]~input_o\ $end
$var wire 1 k \Input_a[15]~input_o\ $end
$var wire 1 l \Output[0]~output_o\ $end
$var wire 1 m \Output[1]~output_o\ $end
$var wire 1 n \Output[2]~output_o\ $end
$var wire 1 o \Output[3]~output_o\ $end
$var wire 1 p \Output[4]~output_o\ $end
$var wire 1 q \Output[5]~output_o\ $end
$var wire 1 r \Output[6]~output_o\ $end
$var wire 1 s \Output[7]~output_o\ $end
$var wire 1 t \Output[8]~output_o\ $end
$var wire 1 u \Output[9]~output_o\ $end
$var wire 1 v \Output[10]~output_o\ $end
$var wire 1 w \Output[11]~output_o\ $end
$var wire 1 x \Output[12]~output_o\ $end
$var wire 1 y \Output[13]~output_o\ $end
$var wire 1 z \Output[14]~output_o\ $end
$var wire 1 { \Output[15]~output_o\ $end
$var wire 1 | \Input_a[0]~input_o\ $end
$var wire 1 } \Input_a[1]~input_o\ $end
$var wire 1 ~ \Input_a[2]~input_o\ $end
$var wire 1 !! \Input_a[3]~input_o\ $end
$var wire 1 "! \Input_a[4]~input_o\ $end
$var wire 1 #! \Input_a[5]~input_o\ $end
$var wire 1 $! \Input_a[6]~input_o\ $end
$var wire 1 %! \Input_a[7]~input_o\ $end
$var wire 1 &! \Input_a[8]~input_o\ $end
$var wire 1 '! \Input_a[9]~input_o\ $end
$var wire 1 (! \Input_a[10]~input_o\ $end
$var wire 1 )! \Input_a[11]~input_o\ $end
$var wire 1 *! \Input_a[12]~input_o\ $end
$var wire 1 +! \Input_a[13]~input_o\ $end
$upscope $end
$upscope $end
$enddefinitions $end
#0
$dumpvars
0A
1B
xC
1D
1E
1F
1G
1H
1I
0j
0k
0l
0m
0n
0o
0p
0q
0r
0s
0t
0u
0v
0w
0x
0y
0z
0{
0|
0}
0~
0!!
0"!
0#!
0$!
0%!
0&!
0'!
0(!
0)!
0*!
0+!
0!
0"
0#
0$
0%
0&
0'
0(
0)
0*
0+
0,
0-
0.
0/
00
0J
0K
0L
0M
0N
0O
0P
0Q
0R
0S
0T
0U
0V
0W
0X
0Y
0Z
0[
0\
0]
0^
0_
0`
0a
0b
0c
0d
0e
0f
0g
0h
0i
01
02
03
04
05
06
07
08
09
0:
0;
0<
0=
0>
0?
0@
$end
#10000
10
1Y
1|
1n
1g
1>
#20000
00
1/
0Y
1X
1}
0|
0n
1o
0g
1f
0>
1=
#30000
10
1Y
1|
1n
1g
1>
#40000
00
0/
1.
0Y
0X
1W
1~
0}
0|
0n
0o
1p
0g
0f
1e
0>
0=
1<
#50000
10
1Y
1|
1n
1g
1>
#60000
00
1/
0Y
1X
1}
0|
0n
1o
0g
1f
0>
1=
#70000
10
1Y
1|
1n
1g
1>
#80000
00
0/
0.
1-
0Y
0X
0W
1V
1!!
0~
0}
0|
0n
0o
0p
1q
0g
0f
0e
1d
0>
0=
0<
1;
#90000
10
1Y
1|
1n
1g
1>
#100000
00
1/
0Y
1X
1}
0|
0n
1o
0g
1f
0>
1=
#110000
10
1Y
1|
1n
1g
1>
#120000
00
0/
1.
0Y
0X
1W
1~
0}
0|
0n
0o
1p
0g
0f
1e
0>
0=
1<
#130000
10
1Y
1|
1n
1g
1>
#140000
00
1/
0Y
1X
1}
0|
0n
1o
0g
1f
0>
1=
#150000
10
1Y
1|
1n
1g
1>
#160000
00
0/
0.
0-
1,
0Y
0X
0W
0V
1U
1"!
0!!
0~
0}
0|
0n
0o
0p
0q
1r
0g
0f
0e
0d
1c
0>
0=
0<
0;
1:
#170000
10
1Y
1|
1n
1g
1>
#180000
00
1/
0Y
1X
1}
0|
0n
1o
0g
1f
0>
1=
#190000
10
1Y
1|
1n
1g
1>
#200000
00
0/
1.
0Y
0X
1W
1~
0}
0|
0n
0o
1p
0g
0f
1e
0>
0=
1<
#210000
10
1Y
1|
1n
1g
1>
#220000
00
1/
0Y
1X
1}
0|
0n
1o
0g
1f
0>
1=
#230000
10
1Y
1|
1n
1g
1>
#240000
00
0/
0.
1-
0Y
0X
0W
1V
1!!
0~
0}
0|
0n
0o
0p
1q
0g
0f
0e
1d
0>
0=
0<
1;
#250000
10
1Y
1|
1n
1g
1>
#260000
00
1/
0Y
1X
1}
0|
0n
1o
0g
1f
0>
1=
#270000
10
1Y
1|
1n
1g
1>
#280000
00
0/
1.
0Y
0X
1W
1~
0}
0|
0n
0o
1p
0g
0f
1e
0>
0=
1<
#290000
10
1Y
1|
1n
1g
1>
#300000
00
1/
0Y
1X
1}
0|
0n
1o
0g
1f
0>
1=
#310000
10
1Y
1|
1n
1g
1>
#320000
00
0/
0.
0-
0,
1+
0Y
0X
0W
0V
0U
1T
1#!
0"!
0!!
0~
0}
0|
0n
0o
0p
0q
0r
1s
0g
0f
0e
0d
0c
1b
0>
0=
0<
0;
0:
19
#330000
10
1Y
1|
1n
1g
1>
#340000
00
1/
0Y
1X
1}
0|
0n
1o
0g
1f
0>
1=
#350000
10
1Y
1|
1n
1g
1>
#360000
00
0/
1.
0Y
0X
1W
1~
0}
0|
0n
0o
1p
0g
0f
1e
0>
0=
1<
#370000
10
1Y
1|
1n
1g
1>
#380000
00
1/
0Y
1X
1}
0|
0n
1o
0g
1f
0>
1=
#390000
10
1Y
1|
1n
1g
1>
#400000
00
0/
0.
1-
0Y
0X
0W
1V
1!!
0~
0}
0|
0n
0o
0p
1q
0g
0f
0e
1d
0>
0=
0<
1;
#410000
10
1Y
1|
1n
1g
1>
#420000
00
1/
0Y
1X
1}
0|
0n
1o
0g
1f
0>
1=
#430000
10
1Y
1|
1n
1g
1>
#440000
00
0/
1.
0Y
0X
1W
1~
0}
0|
0n
0o
1p
0g
0f
1e
0>
0=
1<
#450000
10
1Y
1|
1n
1g
1>
#460000
00
1/
0Y
1X
1}
0|
0n
1o
0g
1f
0>
1=
#470000
10
1Y
1|
1n
1g
1>
#480000
00
0/
0.
0-
1,
0Y
0X
0W
0V
1U
1"!
0!!
0~
0}
0|
0n
0o
0p
0q
1r
0g
0f
0e
0d
1c
0>
0=
0<
0;
1:
#490000
10
1Y
1|
1n
1g
1>
#500000
00
1/
0Y
1X
1}
0|
0n
1o
0g
1f
0>
1=
#510000
10
1Y
1|
1n
1g
1>
#520000
00
0/
1.
0Y
0X
1W
1~
0}
0|
0n
0o
1p
0g
0f
1e
0>
0=
1<
#530000
10
1Y
1|
1n
1g
1>
#540000
00
1/
0Y
1X
1}
0|
0n
1o
0g
1f
0>
1=
#550000
10
1Y
1|
1n
1g
1>
#560000
00
0/
0.
1-
0Y
0X
0W
1V
1!!
0~
0}
0|
0n
0o
0p
1q
0g
0f
0e
1d
0>
0=
0<
1;
#570000
10
1Y
1|
1n
1g
1>
#580000
00
1/
0Y
1X
1}
0|
0n
1o
0g
1f
0>
1=
#590000
10
1Y
1|
1n
1g
1>
#600000
00
0/
1.
0Y
0X
1W
1~
0}
0|
0n
0o
1p
0g
0f
1e
0>
0=
1<
#610000
10
1Y
1|
1n
1g
1>
#620000
00
1/
0Y
1X
1}
0|
0n
1o
0g
1f
0>
1=
#630000
10
1Y
1|
1n
1g
1>
#640000
00
0/
0.
0-
0,
0+
1*
0Y
0X
0W
0V
0U
0T
1S
1$!
0#!
0"!
0!!
0~
0}
0|
0n
0o
0p
0q
0r
0s
1t
0g
0f
0e
0d
0c
0b
1a
0>
0=
0<
0;
0:
09
18
#650000
10
1Y
1|
1n
1g
1>
#660000
00
1/
0Y
1X
1}
0|
0n
1o
0g
1f
0>
1=
#670000
10
1Y
1|
1n
1g
1>
#680000
00
0/
1.
0Y
0X
1W
1~
0}
0|
0n
0o
1p
0g
0f
1e
0>
0=
1<
#690000
10
1Y
1|
1n
1g
1>
#700000
00
1/
0Y
1X
1}
0|
0n
1o
0g
1f
0>
1=
#710000
10
1Y
1|
1n
1g
1>
#720000
00
0/
0.
1-
0Y
0X
0W
1V
1!!
0~
0}
0|
0n
0o
0p
1q
0g
0f
0e
1d
0>
0=
0<
1;
#730000
10
1Y
1|
1n
1g
1>
#740000
00
1/
0Y
1X
1}
0|
0n
1o
0g
1f
0>
1=
#750000
10
1Y
1|
1n
1g
1>
#760000
00
0/
1.
0Y
0X
1W
1~
0}
0|
0n
0o
1p
0g
0f
1e
0>
0=
1<
#770000
10
1Y
1|
1n
1g
1>
#780000
00
1/
0Y
1X
1}
0|
0n
1o
0g
1f
0>
1=
#790000
10
1Y
1|
1n
1g
1>
#800000
00
0/
0.
0-
1,
0Y
0X
0W
0V
1U
1"!
0!!
0~
0}
0|
0n
0o
0p
0q
1r
0g
0f
0e
0d
1c
0>
0=
0<
0;
1:
#810000
10
1Y
1|
1n
1g
1>
#820000
00
1/
0Y
1X
1}
0|
0n
1o
0g
1f
0>
1=
#830000
10
1Y
1|
1n
1g
1>
#840000
00
0/
1.
0Y
0X
1W
1~
0}
0|
0n
0o
1p
0g
0f
1e
0>
0=
1<
#850000
10
1Y
1|
1n
1g
1>
#860000
00
1/
0Y
1X
1}
0|
0n
1o
0g
1f
0>
1=
#870000
10
1Y
1|
1n
1g
1>
#880000
00
0/
0.
1-
0Y
0X
0W
1V
1!!
0~
0}
0|
0n
0o
0p
1q
0g
0f
0e
1d
0>
0=
0<
1;
#890000
10
1Y
1|
1n
1g
1>
#900000
00
1/
0Y
1X
1}
0|
0n
1o
0g
1f
0>
1=
#910000
10
1Y
1|
1n
1g
1>
#920000
00
0/
1.
0Y
0X
1W
1~
0}
0|
0n
0o
1p
0g
0f
1e
0>
0=
1<
#930000
10
1Y
1|
1n
1g
1>
#940000
00
1/
0Y
1X
1}
0|
0n
1o
0g
1f
0>
1=
#950000
10
1Y
1|
1n
1g
1>
#960000
00
0/
0.
0-
0,
1+
0Y
0X
0W
0V
0U
1T
1#!
0"!
0!!
0~
0}
0|
0n
0o
0p
0q
0r
1s
0g
0f
0e
0d
0c
1b
0>
0=
0<
0;
0:
19
#970000
10
1Y
1|
1n
1g
1>
#980000
00
1/
0Y
1X
1}
0|
0n
1o
0g
1f
0>
1=
#990000
10
1Y
1|
1n
1g
1>
