Questao4/Somador/simulation/qsim/Somador4.msim.vcd
$comment
	File created using the following command:
		vcd file Somador4.msim.vcd -direction
$end
$date
	Tue Oct 23 20:23:46 2018
$end
$version
	ModelSim Version 10.5b
$end
$timescale
	1ps
$end

$scope module somador4_vhd_vec_tst $end
$var wire 1 ! Input [7] $end
$var wire 1 " Input [6] $end
$var wire 1 # Input [5] $end
$var wire 1 $ Input [4] $end
$var wire 1 % Input [3] $end
$var wire 1 & Input [2] $end
$var wire 1 ' Input [1] $end
$var wire 1 ( Input [0] $end
$var wire 1 ) saida [7] $end
$var wire 1 * saida [6] $end
$var wire 1 + saida [5] $end
$var wire 1 , saida [4] $end
$var wire 1 - saida [3] $end
$var wire 1 . saida [2] $end
$var wire 1 / saida [1] $end
$var wire 1 0 saida [0] $end

$scope module i1 $end
$var wire 1 1 gnd $end
$var wire 1 2 vcc $end
$var wire 1 3 unknown $end
$var wire 1 4 devoe $end
$var wire 1 5 devclrn $end
$var wire 1 6 devpor $end
$var wire 1 7 ww_devoe $end
$var wire 1 8 ww_devclrn $end
$var wire 1 9 ww_devpor $end
$var wire 1 : ww_Input [7] $end
$var wire 1 ; ww_Input [6] $end
$var wire 1 < ww_Input [5] $end
$var wire 1 = ww_Input [4] $end
$var wire 1 > ww_Input [3] $end
$var wire 1 ? ww_Input [2] $end
$var wire 1 @ ww_Input [1] $end
$var wire 1 A ww_Input [0] $end
$var wire 1 B ww_saida [7] $end
$var wire 1 C ww_saida [6] $end
$var wire 1 D ww_saida [5] $end
$var wire 1 E ww_saida [4] $end
$var wire 1 F ww_saida [3] $end
$var wire 1 G ww_saida [2] $end
$var wire 1 H ww_saida [1] $end
$var wire 1 I ww_saida [0] $end
$var wire 1 J \saida[0]~output_o\ $end
$var wire 1 K \saida[1]~output_o\ $end
$var wire 1 L \saida[2]~output_o\ $end
$var wire 1 M \saida[3]~output_o\ $end
$var wire 1 N \saida[4]~output_o\ $end
$var wire 1 O \saida[5]~output_o\ $end
$var wire 1 P \saida[6]~output_o\ $end
$var wire 1 Q \saida[7]~output_o\ $end
$var wire 1 R \Input[0]~input_o\ $end
$var wire 1 S \Input[1]~input_o\ $end
$var wire 1 T \Input[2]~input_o\ $end
$var wire 1 U \Input[3]~input_o\ $end
$var wire 1 V \Add0~0_combout\ $end
$var wire 1 W \Input[4]~input_o\ $end
$var wire 1 X \Add0~1_combout\ $end
$var wire 1 Y \Input[5]~input_o\ $end
$var wire 1 Z \Add0~2_combout\ $end
$var wire 1 [ \Input[6]~input_o\ $end
$var wire 1 \ \Add0~3_combout\ $end
$var wire 1 ] \Input[7]~input_o\ $end
$var wire 1 ^ \Add0~4_combout\ $end
$var wire 1 _ \ALT_INV_Input[7]~input_o\ $end
$var wire 1 ` \ALT_INV_Input[6]~input_o\ $end
$var wire 1 a \ALT_INV_Input[5]~input_o\ $end
$var wire 1 b \ALT_INV_Input[4]~input_o\ $end
$var wire 1 c \ALT_INV_Input[3]~input_o\ $end
$var wire 1 d \ALT_INV_Input[2]~input_o\ $end
$upscope $end
$upscope $end
$enddefinitions $end
#0
$dumpvars
01
12
x3
14
15
16
17
18
19
0J
0K
1L
0M
0N
0O
0P
1Q
0R
0S
0T
0U
0V
0W
0X
0Y
0Z
0[
0\
1]
1^
0_
1`
1a
1b
1c
1d
1!
0"
0#
0$
0%
0&
0'
0(
1:
0;
0<
0=
0>
0?
0@
0A
1B
0C
0D
0E
0F
1G
0H
0I
1)
0*
0+
0,
0-
1.
0/
00
$end
#10000
1(
1A
1R
1J
1I
10
#20000
0(
1'
0A
1@
1S
0R
0J
1K
0I
1H
00
1/
#30000
1(
1A
1R
1J
1I
10
#40000
0(
0'
1&
0A
0@
1?
1T
0S
0R
0d
1V
0J
0K
0L
0I
0H
0G
00
0/
1M
0.
1F
1-
#50000
1(
1A
1R
1J
1I
10
#60000
0(
1'
0A
1@
1S
0R
0J
1K
0I
1H
00
1/
#70000
1(
1A
1R
1J
1I
10
#80000
0(
0'
0&
1%
0A
0@
0?
1>
1U
0T
0S
0R
1d
0c
0J
0K
1L
0I
0H
1G
00
0/
1.
#90000
1(
1A
1R
1J
1I
10
#100000
0(
1'
0A
1@
1S
0R
0J
1K
0I
1H
00
1/
#110000
1(
1A
1R
1J
1I
10
#120000
0(
0'
1&
0A
0@
1?
1T
0S
0R
0d
0V
1X
0J
0K
0L
0I
0H
0G
00
0/
1N
0M
0.
1E
0F
0-
1,
#130000
1(
1A
1R
1J
1I
10
#140000
0(
1'
0A
1@
1S
0R
0J
1K
0I
1H
00
1/
#150000
1(
1A
1R
1J
1I
10
#160000
0(
0'
0&
0%
1$
0A
0@
0?
0>
1=
1W
0U
0T
0S
0R
1d
1c
0b
0J
0K
1L
0I
0H
1G
00
0/
1.
#170000
1(
1A
1R
1J
1I
10
#180000
0(
1'
0A
1@
1S
0R
0J
1K
0I
1H
00
1/
#190000
1(
1A
1R
1J
1I
10
#200000
0(
0'
1&
0A
0@
1?
1T
0S
0R
0d
1V
0J
0K
0L
0I
0H
0G
00
0/
1M
0.
1F
1-
#210000
1(
1A
1R
1J
1I
10
#220000
0(
1'
0A
1@
1S
0R
0J
1K
0I
1H
00
1/
#230000
1(
1A
1R
1J
1I
10
#240000
0(
0'
0&
1%
0A
0@
0?
1>
1U
0T
0S
0R
1d
0c
0J
0K
1L
0I
0H
1G
00
0/
1.
#250000
1(
1A
1R
1J
1I
10
#260000
0(
1'
0A
1@
1S
0R
0J
1K
0I
1H
00
1/
#270000
1(
1A
1R
1J
1I
10
#280000
0(
0'
1&
0A
0@
1?
1T
0S
0R
0d
0V
0X
1Z
0J
0K
0L
0I
0H
0G
00
0/
1O
0N
0M
0.
1D
0E
0F
0-
0,
1+
#290000
1(
1A
1R
1J
1I
10
#300000
0(
1'
0A
1@
1S
0R
0J
1K
0I
1H
00
1/
#310000
1(
1A
1R
1J
1I
10
#320000
0(
0'
0&
0%
0$
1#
0A
0@
0?
0>
0=
1<
1Y
0W
0U
0T
0S
0R
1d
1c
1b
0a
0J
0K
1L
0I
0H
1G
00
0/
1.
#330000
1(
1A
1R
1J
1I
10
#340000
0(
1'
0A
1@
1S
0R
0J
1K
0I
1H
00
1/
#350000
1(
1A
1R
1J
1I
10
#360000
0(
0'
1&
0A
0@
1?
1T
0S
0R
0d
1V
0J
0K
0L
0I
0H
0G
00
0/
1M
0.
1F
1-
#370000
1(
1A
1R
1J
1I
10
#380000
0(
1'
0A
1@
1S
0R
0J
1K
0I
1H
00
1/
#390000
1(
1A
1R
1J
1I
10
#400000
0(
0'
0&
1%
0A
0@
0?
1>
1U
0T
0S
0R
1d
0c
0J
0K
1L
0I
0H
1G
00
0/
1.
#410000
1(
1A
1R
1J
1I
10
#420000
0(
1'
0A
1@
1S
0R
0J
1K
0I
1H
00
1/
#430000
1(
1A
1R
1J
1I
10
#440000
0(
0'
1&
0A
0@
1?
1T
0S
0R
0d
0V
1X
0J
0K
0L
0I
0H
0G
00
0/
1N
0M
0.
1E
0F
0-
1,
#450000
1(
1A
1R
1J
1I
10
#460000
0(
1'
0A
1@
1S
0R
0J
1K
0I
1H
00
1/
#470000
1(
1A
1R
1J
1I
10
#480000
0(
0'
0&
0%
1$
0A
0@
0?
0>
1=
1W
0U
0T
0S
0R
1d
1c
0b
0J
0K
1L
0I
0H
1G
00
0/
1.
#490000
1(
1A
1R
1J
1I
10
#500000
0(
1'
0A
1@
1S
0R
0J
1K
0I
1H
00
1/
#510000
1(
1A
1R
1J
1I
10
#520000
0(
0'
1&
0A
0@
1?
1T
0S
0R
0d
1V
0J
0K
0L
0I
0H
0G
00
0/
1M
0.
1F
1-
#530000
1(
1A
1R
1J
1I
10
#540000
0(
1'
0A
1@
1S
0R
0J
1K
0I
1H
00
1/
#550000
1(
1A
1R
1J
1I
10
#560000
0(
0'
0&
1%
0A
0@
0?
1>
1U
0T
0S
0R
1d
0c
0J
0K
1L
0I
0H
1G
00
0/
1.
#570000
1(
1A
1R
1J
1I
10
#580000
0(
1'
0A
1@
1S
0R
0J
1K
0I
1H
00
1/
#590000
1(
1A
1R
1J
1I
10
#600000
0(
0'
1&
0A
0@
1?
1T
0S
0R
0d
0V
0X
0Z
1\
0J
0K
0L
0I
0H
0G
00
0/
1P
0O
0N
0M
0.
1C
0D
0E
0F
0-
0,
0+
1*
#610000
1(
1A
1R
1J
1I
10
#620000
0(
1'
0A
1@
1S
0R
0J
1K
0I
1H
00
1/
#630000
1(
1A
1R
1J
1I
10
#640000
0(
0'
0&
0%
0$
0#
1"
0A
0@
0?
0>
0=
0<
1;
1[
0Y
0W
0U
0T
0S
0R
1d
1c
1b
1a
0`
0J
0K
1L
0I
0H
1G
00
0/
1.
#650000
1(
1A
1R
1J
1I
10
#660000
0(
1'
0A
1@
1S
0R
0J
1K
0I
1H
00
1/
#670000
1(
1A
1R
1J
1I
10
#680000
0(
0'
1&
0A
0@
1?
1T
0S
0R
0d
1V
0J
0K
0L
0I
0H
0G
00
0/
1M
0.
1F
1-
#690000
1(
1A
1R
1J
1I
10
#700000
0(
1'
0A
1@
1S
0R
0J
1K
0I
1H
00
1/
#710000
1(
1A
1R
1J
1I
10
#720000
0(
0'
0&
1%
0A
0@
0?
1>
1U
0T
0S
0R
1d
0c
0J
0K
1L
0I
0H
1G
00
0/
1.
#730000
1(
1A
1R
1J
1I
10
#740000
0(
1'
0A
1@
1S
0R
0J
1K
0I
1H
00
1/
#750000
1(
1A
1R
1J
1I
10
#760000
0(
0'
1&
0A
0@
1?
1T
0S
0R
0d
0V
1X
0J
0K
0L
0I
0H
0G
00
0/
1N
0M
0.
1E
0F
0-
1,
#770000
1(
1A
1R
1J
1I
10
#780000
0(
1'
0A
1@
1S
0R
0J
1K
0I
1H
00
1/
#790000
1(
1A
1R
1J
1I
10
#800000
0(
0'
0&
0%
1$
0A
0@
0?
0>
1=
1W
0U
0T
0S
0R
1d
1c
0b
0J
0K
1L
0I
0H
1G
00
0/
1.
#810000
1(
1A
1R
1J
1I
10
#820000
0(
1'
0A
1@
1S
0R
0J
1K
0I
1H
00
1/
#830000
1(
1A
1R
1J
1I
10
#840000
0(
0'
1&
0A
0@
1?
1T
0S
0R
0d
1V
0J
0K
0L
0I
0H
0G
00
0/
1M
0.
1F
1-
#850000
1(
1A
1R
1J
1I
10
#860000
0(
1'
0A
1@
1S
0R
0J
1K
0I
1H
00
1/
#870000
1(
1A
1R
1J
1I
10
#880000
0(
0'
0&
1%
0A
0@
0?
1>
1U
0T
0S
0R
1d
0c
0J
0K
1L
0I
0H
1G
00
0/
1.
#890000
1(
1A
1R
1J
1I
10
#900000
0(
1'
0A
1@
1S
0R
0J
1K
0I
1H
00
1/
#910000
1(
1A
1R
1J
1I
10
#920000
0(
0'
1&
0A
0@
1?
1T
0S
0R
0d
0V
0X
1Z
0J
0K
0L
0I
0H
0G
00
0/
1O
0N
0M
0.
1D
0E
0F
0-
0,
1+
#930000
1(
1A
1R
1J
1I
10
#940000
0(
1'
0A
1@
1S
0R
0J
1K
0I
1H
00
1/
#950000
1(
1A
1R
1J
1I
10
#960000
0(
0'
0&
0%
0$
1#
0A
0@
0?
0>
0=
1<
1Y
0W
0U
0T
0S
0R
1d
1c
1b
0a
0J
0K
1L
0I
0H
1G
00
0/
1.
#970000
1(
1A
1R
1J
1I
10
#980000
0(
1'
0A
1@
1S
0R
0J
1K
0I
1H
00
1/
#990000
1(
1A
1R
1J
1I
10
