Questão - 11/Extensor/simulation/qsim/Extensor.msim.vcd
$comment
	File created using the following command:
		vcd file Extensor.msim.vcd -direction
$end
$date
	Fri Oct 26 01:00:11 2018
$end
$version
	ModelSim Version 10.5b
$end
$timescale
	1ps
$end

$scope module extensor_vhd_vec_tst $end
$var wire 1 ! Input_a [7] $end
$var wire 1 " Input_a [6] $end
$var wire 1 # Input_a [5] $end
$var wire 1 $ Input_a [4] $end
$var wire 1 % Input_a [3] $end
$var wire 1 & Input_a [2] $end
$var wire 1 ' Input_a [1] $end
$var wire 1 ( Input_a [0] $end
$var wire 1 ) Output [15] $end
$var wire 1 * Output [14] $end
$var wire 1 + Output [13] $end
$var wire 1 , Output [12] $end
$var wire 1 - Output [11] $end
$var wire 1 . Output [10] $end
$var wire 1 / Output [9] $end
$var wire 1 0 Output [8] $end
$var wire 1 1 Output [7] $end
$var wire 1 2 Output [6] $end
$var wire 1 3 Output [5] $end
$var wire 1 4 Output [4] $end
$var wire 1 5 Output [3] $end
$var wire 1 6 Output [2] $end
$var wire 1 7 Output [1] $end
$var wire 1 8 Output [0] $end

$scope module i1 $end
$var wire 1 9 gnd $end
$var wire 1 : vcc $end
$var wire 1 ; unknown $end
$var wire 1 < devoe $end
$var wire 1 = devclrn $end
$var wire 1 > devpor $end
$var wire 1 ? ww_devoe $end
$var wire 1 @ ww_devclrn $end
$var wire 1 A ww_devpor $end
$var wire 1 B ww_Input_a [7] $end
$var wire 1 C ww_Input_a [6] $end
$var wire 1 D ww_Input_a [5] $end
$var wire 1 E ww_Input_a [4] $end
$var wire 1 F ww_Input_a [3] $end
$var wire 1 G ww_Input_a [2] $end
$var wire 1 H ww_Input_a [1] $end
$var wire 1 I ww_Input_a [0] $end
$var wire 1 J ww_Output [15] $end
$var wire 1 K ww_Output [14] $end
$var wire 1 L ww_Output [13] $end
$var wire 1 M ww_Output [12] $end
$var wire 1 N ww_Output [11] $end
$var wire 1 O ww_Output [10] $end
$var wire 1 P ww_Output [9] $end
$var wire 1 Q ww_Output [8] $end
$var wire 1 R ww_Output [7] $end
$var wire 1 S ww_Output [6] $end
$var wire 1 T ww_Output [5] $end
$var wire 1 U ww_Output [4] $end
$var wire 1 V ww_Output [3] $end
$var wire 1 W ww_Output [2] $end
$var wire 1 X ww_Output [1] $end
$var wire 1 Y ww_Output [0] $end
$var wire 1 Z \Output[0]~output_o\ $end
$var wire 1 [ \Output[1]~output_o\ $end
$var wire 1 \ \Output[2]~output_o\ $end
$var wire 1 ] \Output[3]~output_o\ $end
$var wire 1 ^ \Output[4]~output_o\ $end
$var wire 1 _ \Output[5]~output_o\ $end
$var wire 1 ` \Output[6]~output_o\ $end
$var wire 1 a \Output[7]~output_o\ $end
$var wire 1 b \Output[8]~output_o\ $end
$var wire 1 c \Output[9]~output_o\ $end
$var wire 1 d \Output[10]~output_o\ $end
$var wire 1 e \Output[11]~output_o\ $end
$var wire 1 f \Output[12]~output_o\ $end
$var wire 1 g \Output[13]~output_o\ $end
$var wire 1 h \Output[14]~output_o\ $end
$var wire 1 i \Output[15]~output_o\ $end
$var wire 1 j \Input_a[0]~input_o\ $end
$var wire 1 k \Input_a[1]~input_o\ $end
$var wire 1 l \Input_a[2]~input_o\ $end
$var wire 1 m \Input_a[3]~input_o\ $end
$var wire 1 n \Input_a[4]~input_o\ $end
$var wire 1 o \Input_a[5]~input_o\ $end
$var wire 1 p \Input_a[6]~input_o\ $end
$var wire 1 q \Input_a[7]~input_o\ $end
$upscope $end
$upscope $end
$enddefinitions $end
#0
$dumpvars
09
1:
x;
1<
1=
1>
1?
1@
1A
0Z
0[
0\
0]
0^
0_
0`
0a
0b
0c
0d
0e
0f
0g
0h
0i
0j
0k
0l
0m
0n
0o
0p
0q
0!
0"
0#
0$
0%
0&
0'
0(
0B
0C
0D
0E
0F
0G
0H
0I
0J
0K
0L
0M
0N
0O
0P
0Q
0R
0S
0T
0U
0V
0W
0X
0Y
0)
0*
0+
0,
0-
0.
0/
00
01
02
03
04
05
06
07
08
$end
#10000
1(
1I
1j
1Z
1Y
18
#20000
0(
1'
0I
1H
1k
0j
0Z
1[
0Y
1X
08
17
#30000
1(
1I
1j
1Z
1Y
18
#40000
0(
0'
1&
0I
0H
1G
1l
0k
0j
0Z
0[
1\
0Y
0X
1W
08
07
16
#50000
1(
1I
1j
1Z
1Y
18
#60000
0(
1'
0I
1H
1k
0j
0Z
1[
0Y
1X
08
17
#70000
1(
1I
1j
1Z
1Y
18
#80000
0(
0'
0&
1%
0I
0H
0G
1F
1m
0l
0k
0j
0Z
0[
0\
1]
0Y
0X
0W
1V
08
07
06
15
#90000
1(
1I
1j
1Z
1Y
18
#100000
0(
1'
0I
1H
1k
0j
0Z
1[
0Y
1X
08
17
#110000
1(
1I
1j
1Z
1Y
18
#120000
0(
0'
1&
0I
0H
1G
1l
0k
0j
0Z
0[
1\
0Y
0X
1W
08
07
16
#130000
1(
1I
1j
1Z
1Y
18
#140000
0(
1'
0I
1H
1k
0j
0Z
1[
0Y
1X
08
17
#150000
1(
1I
1j
1Z
1Y
18
#160000
0(
0'
0&
0%
1$
0I
0H
0G
0F
1E
1n
0m
0l
0k
0j
0Z
0[
0\
0]
1^
0Y
0X
0W
0V
1U
08
07
06
05
14
#170000
1(
1I
1j
1Z
1Y
18
#180000
0(
1'
0I
1H
1k
0j
0Z
1[
0Y
1X
08
17
#190000
1(
1I
1j
1Z
1Y
18
#200000
0(
0'
1&
0I
0H
1G
1l
0k
0j
0Z
0[
1\
0Y
0X
1W
08
07
16
#210000
1(
1I
1j
1Z
1Y
18
#220000
0(
1'
0I
1H
1k
0j
0Z
1[
0Y
1X
08
17
#230000
1(
1I
1j
1Z
1Y
18
#240000
0(
0'
0&
1%
0I
0H
0G
1F
1m
0l
0k
0j
0Z
0[
0\
1]
0Y
0X
0W
1V
08
07
06
15
#250000
1(
1I
1j
1Z
1Y
18
#260000
0(
1'
0I
1H
1k
0j
0Z
1[
0Y
1X
08
17
#270000
1(
1I
1j
1Z
1Y
18
#280000
0(
0'
1&
0I
0H
1G
1l
0k
0j
0Z
0[
1\
0Y
0X
1W
08
07
16
#290000
1(
1I
1j
1Z
1Y
18
#300000
0(
1'
0I
1H
1k
0j
0Z
1[
0Y
1X
08
17
#310000
1(
1I
1j
1Z
1Y
18
#320000
0(
0'
0&
0%
0$
1#
0I
0H
0G
0F
0E
1D
1o
0n
0m
0l
0k
0j
0Z
0[
0\
0]
0^
1_
0Y
0X
0W
0V
0U
1T
08
07
06
05
04
13
#330000
1(
1I
1j
1Z
1Y
18
#340000
0(
1'
0I
1H
1k
0j
0Z
1[
0Y
1X
08
17
#350000
1(
1I
1j
1Z
1Y
18
#360000
0(
0'
1&
0I
0H
1G
1l
0k
0j
0Z
0[
1\
0Y
0X
1W
08
07
16
#370000
1(
1I
1j
1Z
1Y
18
#380000
0(
1'
0I
1H
1k
0j
0Z
1[
0Y
1X
08
17
#390000
1(
1I
1j
1Z
1Y
18
#400000
0(
0'
0&
1%
0I
0H
0G
1F
1m
0l
0k
0j
0Z
0[
0\
1]
0Y
0X
0W
1V
08
07
06
15
#410000
1(
1I
1j
1Z
1Y
18
#420000
0(
1'
0I
1H
1k
0j
0Z
1[
0Y
1X
08
17
#430000
1(
1I
1j
1Z
1Y
18
#440000
0(
0'
1&
0I
0H
1G
1l
0k
0j
0Z
0[
1\
0Y
0X
1W
08
07
16
#450000
1(
1I
1j
1Z
1Y
18
#460000
0(
1'
0I
1H
1k
0j
0Z
1[
0Y
1X
08
17
#470000
1(
1I
1j
1Z
1Y
18
#480000
0(
0'
0&
0%
1$
0I
0H
0G
0F
1E
1n
0m
0l
0k
0j
0Z
0[
0\
0]
1^
0Y
0X
0W
0V
1U
08
07
06
05
14
#490000
1(
1I
1j
1Z
1Y
18
#500000
0(
1'
0I
1H
1k
0j
0Z
1[
0Y
1X
08
17
#510000
1(
1I
1j
1Z
1Y
18
#520000
0(
0'
1&
0I
0H
1G
1l
0k
0j
0Z
0[
1\
0Y
0X
1W
08
07
16
#530000
1(
1I
1j
1Z
1Y
18
#540000
0(
1'
0I
1H
1k
0j
0Z
1[
0Y
1X
08
17
#550000
1(
1I
1j
1Z
1Y
18
#560000
0(
0'
0&
1%
0I
0H
0G
1F
1m
0l
0k
0j
0Z
0[
0\
1]
0Y
0X
0W
1V
08
07
06
15
#570000
1(
1I
1j
1Z
1Y
18
#580000
0(
1'
0I
1H
1k
0j
0Z
1[
0Y
1X
08
17
#590000
1(
1I
1j
1Z
1Y
18
#600000
0(
0'
1&
0I
0H
1G
1l
0k
0j
0Z
0[
1\
0Y
0X
1W
08
07
16
#610000
1(
1I
1j
1Z
1Y
18
#620000
0(
1'
0I
1H
1k
0j
0Z
1[
0Y
1X
08
17
#630000
1(
1I
1j
1Z
1Y
18
#640000
0(
0'
0&
0%
0$
0#
1"
0I
0H
0G
0F
0E
0D
1C
1p
0o
0n
0m
0l
0k
0j
0Z
0[
0\
0]
0^
0_
1`
0Y
0X
0W
0V
0U
0T
1S
08
07
06
05
04
03
12
#650000
1(
1I
1j
1Z
1Y
18
#660000
0(
1'
0I
1H
1k
0j
0Z
1[
0Y
1X
08
17
#670000
1(
1I
1j
1Z
1Y
18
#680000
0(
0'
1&
0I
0H
1G
1l
0k
0j
0Z
0[
1\
0Y
0X
1W
08
07
16
#690000
1(
1I
1j
1Z
1Y
18
#700000
0(
1'
0I
1H
1k
0j
0Z
1[
0Y
1X
08
17
#710000
1(
1I
1j
1Z
1Y
18
#720000
0(
0'
0&
1%
0I
0H
0G
1F
1m
0l
0k
0j
0Z
0[
0\
1]
0Y
0X
0W
1V
08
07
06
15
#730000
1(
1I
1j
1Z
1Y
18
#740000
0(
1'
0I
1H
1k
0j
0Z
1[
0Y
1X
08
17
#750000
1(
1I
1j
1Z
1Y
18
#760000
0(
0'
1&
0I
0H
1G
1l
0k
0j
0Z
0[
1\
0Y
0X
1W
08
07
16
#770000
1(
1I
1j
1Z
1Y
18
#780000
0(
1'
0I
1H
1k
0j
0Z
1[
0Y
1X
08
17
#790000
1(
1I
1j
1Z
1Y
18
#800000
0(
0'
0&
0%
1$
0I
0H
0G
0F
1E
1n
0m
0l
0k
0j
0Z
0[
0\
0]
1^
0Y
0X
0W
0V
1U
08
07
06
05
14
#810000
1(
1I
1j
1Z
1Y
18
#820000
0(
1'
0I
1H
1k
0j
0Z
1[
0Y
1X
08
17
#830000
1(
1I
1j
1Z
1Y
18
#840000
0(
0'
1&
0I
0H
1G
1l
0k
0j
0Z
0[
1\
0Y
0X
1W
08
07
16
#850000
1(
1I
1j
1Z
1Y
18
#860000
0(
1'
0I
1H
1k
0j
0Z
1[
0Y
1X
08
17
#870000
1(
1I
1j
1Z
1Y
18
#880000
0(
0'
0&
1%
0I
0H
0G
1F
1m
0l
0k
0j
0Z
0[
0\
1]
0Y
0X
0W
1V
08
07
06
15
#890000
1(
1I
1j
1Z
1Y
18
#900000
0(
1'
0I
1H
1k
0j
0Z
1[
0Y
1X
08
17
#910000
1(
1I
1j
1Z
1Y
18
#920000
0(
0'
1&
0I
0H
1G
1l
0k
0j
0Z
0[
1\
0Y
0X
1W
08
07
16
#930000
1(
1I
1j
1Z
1Y
18
#940000
0(
1'
0I
1H
1k
0j
0Z
1[
0Y
1X
08
17
#950000
1(
1I
1j
1Z
1Y
18
#960000
0(
0'
0&
0%
0$
1#
0I
0H
0G
0F
0E
1D
1o
0n
0m
0l
0k
0j
0Z
0[
0\
0]
0^
1_
0Y
0X
0W
0V
0U
1T
08
07
06
05
04
13
#970000
1(
1I
1j
1Z
1Y
18
#980000
0(
1'
0I
1H
1k
0j
0Z
1[
0Y
1X
08
17
#990000
1(
1I
1j
1Z
1Y
18
