Questão - 10/ULA/XOR/simulation/qsim/XOR.msim.vcd
$comment
	File created using the following command:
		vcd file XOR.msim.vcd -direction
$end
$date
	Sat Oct 27 02:24:55 2018
$end
$version
	ModelSim Version 10.5b
$end
$timescale
	1ps
$end

$scope module portxor_vhd_vec_tst $end
$var wire 1 ! Input_a $end
$var wire 1 " Input_b $end
$var wire 1 # Output $end

$scope module i1 $end
$var wire 1 $ gnd $end
$var wire 1 % vcc $end
$var wire 1 & unknown $end
$var wire 1 ' devoe $end
$var wire 1 ( devclrn $end
$var wire 1 ) devpor $end
$var wire 1 * ww_devoe $end
$var wire 1 + ww_devclrn $end
$var wire 1 , ww_devpor $end
$var wire 1 - ww_Input_a $end
$var wire 1 . ww_Input_b $end
$var wire 1 / ww_Output $end
$var wire 1 0 \Output~output_o\ $end
$var wire 1 1 \Input_a~input_o\ $end
$var wire 1 2 \Input_b~input_o\ $end
$var wire 1 3 \G4|pout~0_combout\ $end
$var wire 1 4 \ALT_INV_Input_a~input_o\ $end
$var wire 1 5 \ALT_INV_Input_b~input_o\ $end
$upscope $end
$upscope $end
$enddefinitions $end
#0
$dumpvars
0!
0"
0#
0$
1%
x&
1'
1(
1)
1*
1+
1,
0-
0.
0/
00
01
02
03
14
15
$end
#20000
1"
1.
12
05
13
10
1/
1#
#25000
1!
1-
11
04
03
00
0/
0#
#40000
0"
0.
02
15
13
10
1/
1#
#50000
0!
0-
01
14
03
00
0/
0#
#60000
1"
1.
12
05
13
10
1/
1#
#75000
1!
1-
11
04
03
00
0/
0#
#80000
0"
0.
02
15
13
10
1/
1#
#100000
1"
0!
1.
0-
01
12
05
14
#120000
0"
0.
02
15
03
00
0/
0#
#125000
1!
1-
11
04
13
10
1/
1#
#140000
1"
1.
12
05
03
00
0/
0#
#150000
0!
0-
01
14
13
10
1/
1#
#160000
0"
0.
02
15
03
00
0/
0#
#175000
1!
1-
11
04
13
10
1/
1#
#180000
1"
1.
12
05
03
00
0/
0#
#200000
0"
0!
0.
0-
01
02
15
14
#220000
1"
1.
12
05
13
10
1/
1#
#225000
1!
1-
11
04
03
00
0/
0#
#240000
0"
0.
02
15
13
10
1/
1#
#250000
0!
0-
01
14
03
00
0/
0#
#260000
1"
1.
12
05
13
10
1/
1#
#275000
1!
1-
11
04
03
00
0/
0#
#280000
0"
0.
02
15
13
10
1/
1#
#300000
1"
0!
1.
0-
01
12
05
14
#320000
0"
0.
02
15
03
00
0/
0#
#325000
1!
1-
11
04
13
10
1/
1#
#340000
1"
1.
12
05
03
00
0/
0#
#350000
0!
0-
01
14
13
10
1/
1#
#360000
0"
0.
02
15
03
00
0/
0#
#375000
1!
1-
11
04
13
10
1/
1#
#380000
1"
1.
12
05
03
00
0/
0#
#400000
0"
0!
0.
0-
01
02
15
14
#420000
1"
1.
12
05
13
10
1/
1#
#425000
1!
1-
11
04
03
00
0/
0#
#440000
0"
0.
02
15
13
10
1/
1#
#450000
0!
0-
01
14
03
00
0/
0#
#460000
1"
1.
12
05
13
10
1/
1#
#475000
1!
1-
11
04
03
00
0/
0#
#480000
0"
0.
02
15
13
10
1/
1#
#500000
1"
0!
1.
0-
01
12
05
14
#520000
0"
0.
02
15
03
00
0/
0#
#525000
1!
1-
11
04
13
10
1/
1#
#540000
1"
1.
12
05
03
00
0/
0#
#550000
0!
0-
01
14
13
10
1/
1#
#560000
0"
0.
02
15
03
00
0/
0#
#575000
1!
1-
11
04
13
10
1/
1#
#580000
1"
1.
12
05
03
00
0/
0#
#600000
0"
0!
0.
0-
01
02
15
14
#620000
1"
1.
12
05
13
10
1/
1#
#625000
1!
1-
11
04
03
00
0/
0#
#640000
0"
0.
02
15
13
10
1/
1#
#650000
0!
0-
01
14
03
00
0/
0#
#660000
1"
1.
12
05
13
10
1/
1#
#675000
1!
1-
11
04
03
00
0/
0#
#680000
0"
0.
02
15
13
10
1/
1#
#700000
1"
0!
1.
0-
01
12
05
14
#720000
0"
0.
02
15
03
00
0/
0#
#725000
1!
1-
11
04
13
10
1/
1#
#740000
1"
1.
12
05
03
00
0/
0#
#750000
0!
0-
01
14
13
10
1/
1#
#760000
0"
0.
02
15
03
00
0/
0#
#775000
1!
1-
11
04
13
10
1/
1#
#780000
1"
1.
12
05
03
00
0/
0#
#800000
0"
0!
0.
0-
01
02
15
14
#820000
1"
1.
12
05
13
10
1/
1#
#825000
1!
1-
11
04
03
00
0/
0#
#840000
0"
0.
02
15
13
10
1/
1#
#850000
0!
0-
01
14
03
00
0/
0#
#860000
1"
1.
12
05
13
10
1/
1#
#875000
1!
1-
11
04
03
00
0/
0#
#880000
0"
0.
02
15
13
10
1/
1#
#900000
1"
0!
1.
0-
01
12
05
14
#920000
0"
0.
02
15
03
00
0/
0#
#925000
1!
1-
11
04
13
10
1/
1#
#940000
1"
1.
12
05
03
00
0/
0#
#950000
0!
0-
01
14
13
10
1/
1#
#960000
0"
0.
02
15
03
00
0/
0#
#975000
1!
1-
11
04
13
10
1/
1#
#980000
1"
1.
12
05
03
00
0/
0#
