Questao1/FLIP-FLOP/simulation/qsim/Flip-Flop.msim.vcd
$comment
	File created using the following command:
		vcd file Flip-Flop.msim.vcd -direction
$end
$date
	Sat Oct 27 01:29:19 2018
$end
$version
	ModelSim Version 10.5b
$end
$timescale
	1ps
$end

$scope module flipflopd_vhd_vec_tst $end
$var wire 1 ! Clock $end
$var wire 1 " Dados_in $end
$var wire 1 # Dados_out $end

$scope module i1 $end
$var wire 1 $ gnd $end
$var wire 1 % vcc $end
$var wire 1 & unknown $end
$var wire 1 ' devoe $end
$var wire 1 ( devclrn $end
$var wire 1 ) devpor $end
$var wire 1 * ww_devoe $end
$var wire 1 + ww_devclrn $end
$var wire 1 , ww_devpor $end
$var wire 1 - ww_Dados_in $end
$var wire 1 . ww_Clock $end
$var wire 1 / ww_Dados_out $end
$var wire 1 0 \Dados_out~output_o\ $end
$var wire 1 1 \Dados_in~input_o\ $end
$var wire 1 2 \Clock~input_o\ $end
$var wire 1 3 \Dados_out$latch~combout\ $end
$var wire 1 4 \ALT_INV_Dados_out$latch~combout\ $end
$var wire 1 5 \ALT_INV_Dados_in~input_o\ $end
$var wire 1 6 \ALT_INV_Clock~input_o\ $end
$upscope $end
$upscope $end
$enddefinitions $end
#0
$dumpvars
0!
0"
x#
0$
1%
x&
1'
1(
1)
1*
1+
1,
0-
0.
x/
x0
01
02
x3
x4
15
16
$end
#35000
1"
1-
11
05
#50000
1!
1.
12
06
13
04
10
1/
1#
#70000
0"
0-
01
15
03
14
00
0/
0#
#100000
0!
0.
02
16
#105000
1"
1-
11
05
#140000
0"
0-
01
15
#150000
1!
1.
12
06
#175000
1"
1-
11
05
13
04
10
1/
1#
#200000
0!
0.
02
16
#210000
0"
0-
01
15
#245000
1"
1-
11
05
#250000
1!
1.
12
06
#280000
0"
0-
01
15
03
14
00
0/
0#
#300000
0!
0.
02
16
#315000
1"
1-
11
05
#350000
0"
1!
0-
1.
12
01
15
06
#385000
1"
1-
11
05
13
04
10
1/
1#
#400000
0!
0.
02
16
#420000
0"
0-
01
15
#450000
1!
1.
12
06
03
14
00
0/
0#
#455000
1"
1-
11
05
13
04
10
1/
1#
#490000
0"
0-
01
15
03
14
00
0/
0#
#500000
0!
0.
02
16
#525000
1"
1-
11
05
#550000
1!
1.
12
06
13
04
10
1/
1#
#560000
0"
0-
01
15
03
14
00
0/
0#
#595000
1"
1-
11
05
13
04
10
1/
1#
#600000
0!
0.
02
16
#630000
0"
0-
01
15
#650000
1!
1.
12
06
03
14
00
0/
0#
#665000
1"
1-
11
05
13
04
10
1/
1#
#700000
0"
0!
0-
0.
02
01
15
16
#735000
1"
1-
11
05
#750000
1!
1.
12
06
#770000
0"
0-
01
15
03
14
00
0/
0#
#800000
0!
0.
02
16
#805000
1"
1-
11
05
#840000
0"
0-
01
15
#850000
1!
1.
12
06
#875000
1"
1-
11
05
13
04
10
1/
1#
#900000
0!
0.
02
16
#910000
0"
0-
01
15
#945000
1"
1-
11
05
#950000
1!
1.
12
06
#980000
0"
0-
01
15
03
14
00
0/
0#
