Questão - 10/ULA/Somador16/simulation/qsim/Somador16.msim.vcd
$comment
	File created using the following command:
		vcd file Somador16.msim.vcd -direction
$end
$date
	Wed Oct 24 15:41:49 2018
$end
$version
	ModelSim Version 10.5b
$end
$timescale
	1ps
$end

$scope module somador16_vhd_vec_tst $end
$var wire 1 ! Input_a [15] $end
$var wire 1 " Input_a [14] $end
$var wire 1 # Input_a [13] $end
$var wire 1 $ Input_a [12] $end
$var wire 1 % Input_a [11] $end
$var wire 1 & Input_a [10] $end
$var wire 1 ' Input_a [9] $end
$var wire 1 ( Input_a [8] $end
$var wire 1 ) Input_a [7] $end
$var wire 1 * Input_a [6] $end
$var wire 1 + Input_a [5] $end
$var wire 1 , Input_a [4] $end
$var wire 1 - Input_a [3] $end
$var wire 1 . Input_a [2] $end
$var wire 1 / Input_a [1] $end
$var wire 1 0 Input_a [0] $end
$var wire 1 1 Input_b [15] $end
$var wire 1 2 Input_b [14] $end
$var wire 1 3 Input_b [13] $end
$var wire 1 4 Input_b [12] $end
$var wire 1 5 Input_b [11] $end
$var wire 1 6 Input_b [10] $end
$var wire 1 7 Input_b [9] $end
$var wire 1 8 Input_b [8] $end
$var wire 1 9 Input_b [7] $end
$var wire 1 : Input_b [6] $end
$var wire 1 ; Input_b [5] $end
$var wire 1 < Input_b [4] $end
$var wire 1 = Input_b [3] $end
$var wire 1 > Input_b [2] $end
$var wire 1 ? Input_b [1] $end
$var wire 1 @ Input_b [0] $end
$var wire 1 A saida [15] $end
$var wire 1 B saida [14] $end
$var wire 1 C saida [13] $end
$var wire 1 D saida [12] $end
$var wire 1 E saida [11] $end
$var wire 1 F saida [10] $end
$var wire 1 G saida [9] $end
$var wire 1 H saida [8] $end
$var wire 1 I saida [7] $end
$var wire 1 J saida [6] $end
$var wire 1 K saida [5] $end
$var wire 1 L saida [4] $end
$var wire 1 M saida [3] $end
$var wire 1 N saida [2] $end
$var wire 1 O saida [1] $end
$var wire 1 P saida [0] $end

$scope module i1 $end
$var wire 1 Q gnd $end
$var wire 1 R vcc $end
$var wire 1 S unknown $end
$var wire 1 T devoe $end
$var wire 1 U devclrn $end
$var wire 1 V devpor $end
$var wire 1 W ww_devoe $end
$var wire 1 X ww_devclrn $end
$var wire 1 Y ww_devpor $end
$var wire 1 Z ww_Input_a [15] $end
$var wire 1 [ ww_Input_a [14] $end
$var wire 1 \ ww_Input_a [13] $end
$var wire 1 ] ww_Input_a [12] $end
$var wire 1 ^ ww_Input_a [11] $end
$var wire 1 _ ww_Input_a [10] $end
$var wire 1 ` ww_Input_a [9] $end
$var wire 1 a ww_Input_a [8] $end
$var wire 1 b ww_Input_a [7] $end
$var wire 1 c ww_Input_a [6] $end
$var wire 1 d ww_Input_a [5] $end
$var wire 1 e ww_Input_a [4] $end
$var wire 1 f ww_Input_a [3] $end
$var wire 1 g ww_Input_a [2] $end
$var wire 1 h ww_Input_a [1] $end
$var wire 1 i ww_Input_a [0] $end
$var wire 1 j ww_Input_b [15] $end
$var wire 1 k ww_Input_b [14] $end
$var wire 1 l ww_Input_b [13] $end
$var wire 1 m ww_Input_b [12] $end
$var wire 1 n ww_Input_b [11] $end
$var wire 1 o ww_Input_b [10] $end
$var wire 1 p ww_Input_b [9] $end
$var wire 1 q ww_Input_b [8] $end
$var wire 1 r ww_Input_b [7] $end
$var wire 1 s ww_Input_b [6] $end
$var wire 1 t ww_Input_b [5] $end
$var wire 1 u ww_Input_b [4] $end
$var wire 1 v ww_Input_b [3] $end
$var wire 1 w ww_Input_b [2] $end
$var wire 1 x ww_Input_b [1] $end
$var wire 1 y ww_Input_b [0] $end
$var wire 1 z ww_saida [15] $end
$var wire 1 { ww_saida [14] $end
$var wire 1 | ww_saida [13] $end
$var wire 1 } ww_saida [12] $end
$var wire 1 ~ ww_saida [11] $end
$var wire 1 !! ww_saida [10] $end
$var wire 1 "! ww_saida [9] $end
$var wire 1 #! ww_saida [8] $end
$var wire 1 $! ww_saida [7] $end
$var wire 1 %! ww_saida [6] $end
$var wire 1 &! ww_saida [5] $end
$var wire 1 '! ww_saida [4] $end
$var wire 1 (! ww_saida [3] $end
$var wire 1 )! ww_saida [2] $end
$var wire 1 *! ww_saida [1] $end
$var wire 1 +! ww_saida [0] $end
$var wire 1 ,! \saida[0]~output_o\ $end
$var wire 1 -! \saida[1]~output_o\ $end
$var wire 1 .! \saida[2]~output_o\ $end
$var wire 1 /! \saida[3]~output_o\ $end
$var wire 1 0! \saida[4]~output_o\ $end
$var wire 1 1! \saida[5]~output_o\ $end
$var wire 1 2! \saida[6]~output_o\ $end
$var wire 1 3! \saida[7]~output_o\ $end
$var wire 1 4! \saida[8]~output_o\ $end
$var wire 1 5! \saida[9]~output_o\ $end
$var wire 1 6! \saida[10]~output_o\ $end
$var wire 1 7! \saida[11]~output_o\ $end
$var wire 1 8! \saida[12]~output_o\ $end
$var wire 1 9! \saida[13]~output_o\ $end
$var wire 1 :! \saida[14]~output_o\ $end
$var wire 1 ;! \saida[15]~output_o\ $end
$var wire 1 <! \Input_b[0]~input_o\ $end
$var wire 1 =! \Input_a[0]~input_o\ $end
$var wire 1 >! \Add0~1_sumout\ $end
$var wire 1 ?! \Input_b[1]~input_o\ $end
$var wire 1 @! \Input_a[1]~input_o\ $end
$var wire 1 A! \Add0~2\ $end
$var wire 1 B! \Add0~5_sumout\ $end
$var wire 1 C! \Input_b[2]~input_o\ $end
$var wire 1 D! \Input_a[2]~input_o\ $end
$var wire 1 E! \Add0~6\ $end
$var wire 1 F! \Add0~9_sumout\ $end
$var wire 1 G! \Input_b[3]~input_o\ $end
$var wire 1 H! \Input_a[3]~input_o\ $end
$var wire 1 I! \Add0~10\ $end
$var wire 1 J! \Add0~13_sumout\ $end
$var wire 1 K! \Input_b[4]~input_o\ $end
$var wire 1 L! \Input_a[4]~input_o\ $end
$var wire 1 M! \Add0~14\ $end
$var wire 1 N! \Add0~17_sumout\ $end
$var wire 1 O! \Input_b[5]~input_o\ $end
$var wire 1 P! \Input_a[5]~input_o\ $end
$var wire 1 Q! \Add0~18\ $end
$var wire 1 R! \Add0~21_sumout\ $end
$var wire 1 S! \Input_b[6]~input_o\ $end
$var wire 1 T! \Input_a[6]~input_o\ $end
$var wire 1 U! \Add0~22\ $end
$var wire 1 V! \Add0~25_sumout\ $end
$var wire 1 W! \Input_b[7]~input_o\ $end
$var wire 1 X! \Input_a[7]~input_o\ $end
$var wire 1 Y! \Add0~26\ $end
$var wire 1 Z! \Add0~29_sumout\ $end
$var wire 1 [! \Input_b[8]~input_o\ $end
$var wire 1 \! \Input_a[8]~input_o\ $end
$var wire 1 ]! \Add0~30\ $end
$var wire 1 ^! \Add0~33_sumout\ $end
$var wire 1 _! \Input_b[9]~input_o\ $end
$var wire 1 `! \Input_a[9]~input_o\ $end
$var wire 1 a! \Add0~34\ $end
$var wire 1 b! \Add0~37_sumout\ $end
$var wire 1 c! \Input_b[10]~input_o\ $end
$var wire 1 d! \Input_a[10]~input_o\ $end
$var wire 1 e! \Add0~38\ $end
$var wire 1 f! \Add0~41_sumout\ $end
$var wire 1 g! \Input_b[11]~input_o\ $end
$var wire 1 h! \Input_a[11]~input_o\ $end
$var wire 1 i! \Add0~42\ $end
$var wire 1 j! \Add0~45_sumout\ $end
$var wire 1 k! \Input_b[12]~input_o\ $end
$var wire 1 l! \Input_a[12]~input_o\ $end
$var wire 1 m! \Add0~46\ $end
$var wire 1 n! \Add0~49_sumout\ $end
$var wire 1 o! \Input_b[13]~input_o\ $end
$var wire 1 p! \Input_a[13]~input_o\ $end
$var wire 1 q! \Add0~50\ $end
$var wire 1 r! \Add0~53_sumout\ $end
$var wire 1 s! \Input_b[14]~input_o\ $end
$var wire 1 t! \Input_a[14]~input_o\ $end
$var wire 1 u! \Add0~54\ $end
$var wire 1 v! \Add0~57_sumout\ $end
$var wire 1 w! \Input_b[15]~input_o\ $end
$var wire 1 x! \Input_a[15]~input_o\ $end
$var wire 1 y! \Add0~58\ $end
$var wire 1 z! \Add0~61_sumout\ $end
$var wire 1 {! \ALT_INV_Input_a[15]~input_o\ $end
$var wire 1 |! \ALT_INV_Input_b[15]~input_o\ $end
$var wire 1 }! \ALT_INV_Input_a[14]~input_o\ $end
$var wire 1 ~! \ALT_INV_Input_b[14]~input_o\ $end
$var wire 1 !" \ALT_INV_Input_a[13]~input_o\ $end
$var wire 1 "" \ALT_INV_Input_b[13]~input_o\ $end
$var wire 1 #" \ALT_INV_Input_a[12]~input_o\ $end
$var wire 1 $" \ALT_INV_Input_b[12]~input_o\ $end
$var wire 1 %" \ALT_INV_Input_a[11]~input_o\ $end
$var wire 1 &" \ALT_INV_Input_b[11]~input_o\ $end
$var wire 1 '" \ALT_INV_Input_a[10]~input_o\ $end
$var wire 1 (" \ALT_INV_Input_b[10]~input_o\ $end
$var wire 1 )" \ALT_INV_Input_a[9]~input_o\ $end
$var wire 1 *" \ALT_INV_Input_b[9]~input_o\ $end
$var wire 1 +" \ALT_INV_Input_a[8]~input_o\ $end
$var wire 1 ," \ALT_INV_Input_b[8]~input_o\ $end
$var wire 1 -" \ALT_INV_Input_a[7]~input_o\ $end
$var wire 1 ." \ALT_INV_Input_b[7]~input_o\ $end
$var wire 1 /" \ALT_INV_Input_a[6]~input_o\ $end
$var wire 1 0" \ALT_INV_Input_b[6]~input_o\ $end
$var wire 1 1" \ALT_INV_Input_a[5]~input_o\ $end
$var wire 1 2" \ALT_INV_Input_b[5]~input_o\ $end
$var wire 1 3" \ALT_INV_Input_a[4]~input_o\ $end
$var wire 1 4" \ALT_INV_Input_b[4]~input_o\ $end
$var wire 1 5" \ALT_INV_Input_a[3]~input_o\ $end
$var wire 1 6" \ALT_INV_Input_b[3]~input_o\ $end
$var wire 1 7" \ALT_INV_Input_a[2]~input_o\ $end
$var wire 1 8" \ALT_INV_Input_b[2]~input_o\ $end
$var wire 1 9" \ALT_INV_Input_a[1]~input_o\ $end
$var wire 1 :" \ALT_INV_Input_b[1]~input_o\ $end
$var wire 1 ;" \ALT_INV_Input_a[0]~input_o\ $end
$var wire 1 <" \ALT_INV_Input_b[0]~input_o\ $end
$upscope $end
$upscope $end
$enddefinitions $end
#0
$dumpvars
0Q
1R
xS
1T
1U
1V
1W
1X
1Y
0,!
0-!
0.!
0/!
00!
01!
02!
03!
04!
05!
06!
07!
08!
09!
0:!
0;!
0<!
0=!
0>!
0?!
0@!
0A!
0B!
0C!
0D!
0E!
0F!
0G!
0H!
0I!
0J!
0K!
0L!
0M!
0N!
0O!
0P!
0Q!
0R!
0S!
0T!
0U!
0V!
0W!
0X!
0Y!
0Z!
0[!
0\!
0]!
0^!
0_!
0`!
0a!
0b!
0c!
0d!
0e!
0f!
0g!
0h!
0i!
0j!
0k!
0l!
0m!
0n!
0o!
0p!
0q!
0r!
0s!
0t!
0u!
0v!
0w!
0x!
0y!
0z!
1{!
1|!
1}!
1~!
1!"
1""
1#"
1$"
1%"
1&"
1'"
1("
1)"
1*"
1+"
1,"
1-"
1."
1/"
10"
11"
12"
13"
14"
15"
16"
17"
18"
19"
1:"
1;"
1<"
0!
0"
0#
0$
0%
0&
0'
0(
0)
0*
0+
0,
0-
0.
0/
00
01
02
03
04
05
06
07
08
09
0:
0;
0<
0=
0>
0?
0@
0Z
0[
0\
0]
0^
0_
0`
0a
0b
0c
0d
0e
0f
0g
0h
0i
0j
0k
0l
0m
0n
0o
0p
0q
0r
0s
0t
0u
0v
0w
0x
0y
0z
0{
0|
0}
0~
0!!
0"!
0#!
0$!
0%!
0&!
0'!
0(!
0)!
0*!
0+!
0A
0B
0C
0D
0E
0F
0G
0H
0I
0J
0K
0L
0M
0N
0O
0P
$end
#100
10
1@
1i
1y
1<!
1=!
0;"
0<"
1A!
1B!
1-!
1*!
1O
#200
00
0@
1/
1?
0i
1h
0y
1x
1?!
0<!
1@!
0=!
1;"
09"
1<"
0:"
1E!
0A!
0B!
1F!
1.!
0-!
1)!
0*!
0O
1N
#300
10
1@
1i
1y
1<!
1=!
0;"
0<"
1A!
1B!
1-!
1*!
1O
#400
00
0@
0/
0?
1.
1>
0i
0h
1g
0y
0x
1w
1C!
0?!
0<!
1D!
0@!
0=!
1;"
19"
07"
1<"
1:"
08"
1I!
0E!
0A!
0B!
0F!
1J!
1/!
0.!
0-!
1(!
0)!
0*!
0O
0N
1M
#500
10
1@
1i
1y
1<!
1=!
0;"
0<"
1A!
1B!
1-!
1*!
1O
#600
00
0@
1/
1?
0i
1h
0y
1x
1?!
0<!
1@!
0=!
1;"
09"
1<"
0:"
1E!
0A!
0B!
1F!
1.!
0-!
1)!
0*!
0O
1N
#700
10
1@
1i
1y
1<!
1=!
0;"
0<"
1A!
1B!
1-!
1*!
1O
#800
00
0@
0/
0?
0.
0>
1-
1=
0i
0h
0g
1f
0y
0x
0w
1v
1G!
0C!
0?!
0<!
1H!
0D!
0@!
0=!
1;"
19"
17"
05"
1<"
1:"
18"
06"
1M!
0I!
0E!
0A!
0B!
0F!
0J!
1N!
10!
0/!
0.!
0-!
1'!
0(!
0)!
0*!
0O
0N
0M
1L
#900
10
1@
1i
1y
1<!
1=!
0;"
0<"
1A!
1B!
1-!
1*!
1O
#1000
00
0@
1/
1?
0i
1h
0y
1x
1?!
0<!
1@!
0=!
1;"
09"
1<"
0:"
1E!
0A!
0B!
1F!
1.!
0-!
1)!
0*!
0O
1N
#1100
10
1@
1i
1y
1<!
1=!
0;"
0<"
1A!
1B!
1-!
1*!
1O
#1200
00
0@
0/
0?
1.
1>
0i
0h
1g
0y
0x
1w
1C!
0?!
0<!
1D!
0@!
0=!
1;"
19"
07"
1<"
1:"
08"
1I!
0E!
0A!
0B!
0F!
1J!
1/!
0.!
0-!
1(!
0)!
0*!
0O
0N
1M
#1300
10
1@
1i
1y
1<!
1=!
0;"
0<"
1A!
1B!
1-!
1*!
1O
#1400
00
0@
1/
1?
0i
1h
0y
1x
1?!
0<!
1@!
0=!
1;"
09"
1<"
0:"
1E!
0A!
0B!
1F!
1.!
0-!
1)!
0*!
0O
1N
#1500
10
1@
1i
1y
1<!
1=!
0;"
0<"
1A!
1B!
1-!
1*!
1O
#1600
00
0@
0/
0?
0.
0>
0-
0=
1,
1<
0i
0h
0g
0f
1e
0y
0x
0w
0v
1u
1K!
0G!
0C!
0?!
0<!
1L!
0H!
0D!
0@!
0=!
1;"
19"
17"
15"
03"
1<"
1:"
18"
16"
04"
1Q!
0M!
0I!
0E!
0A!
0B!
0F!
0J!
0N!
1R!
11!
00!
0/!
0.!
0-!
1&!
0'!
0(!
0)!
0*!
0O
0N
0M
0L
1K
#1700
10
1@
1i
1y
1<!
1=!
0;"
0<"
1A!
1B!
1-!
1*!
1O
#1800
00
0@
1/
1?
0i
1h
0y
1x
1?!
0<!
1@!
0=!
1;"
09"
1<"
0:"
1E!
0A!
0B!
1F!
1.!
0-!
1)!
0*!
0O
1N
#1900
10
1@
1i
1y
1<!
1=!
0;"
0<"
1A!
1B!
1-!
1*!
1O
#2000
00
0@
0/
0?
1.
1>
0i
0h
1g
0y
0x
1w
1C!
0?!
0<!
1D!
0@!
0=!
1;"
19"
07"
1<"
1:"
08"
1I!
0E!
0A!
0B!
0F!
1J!
1/!
0.!
0-!
1(!
0)!
0*!
0O
0N
1M
#2100
10
1@
1i
1y
1<!
1=!
0;"
0<"
1A!
1B!
1-!
1*!
1O
#2200
00
0@
1/
1?
0i
1h
0y
1x
1?!
0<!
1@!
0=!
1;"
09"
1<"
0:"
1E!
0A!
0B!
1F!
1.!
0-!
1)!
0*!
0O
1N
#2300
10
1@
1i
1y
1<!
1=!
0;"
0<"
1A!
1B!
1-!
1*!
1O
#2400
00
0@
0/
0?
0.
0>
1-
1=
0i
0h
0g
1f
0y
0x
0w
1v
1G!
0C!
0?!
0<!
1H!
0D!
0@!
0=!
1;"
19"
17"
05"
1<"
1:"
18"
06"
1M!
0I!
0E!
0A!
0B!
0F!
0J!
1N!
10!
0/!
0.!
0-!
1'!
0(!
0)!
0*!
0O
0N
0M
1L
#2500
10
1@
1i
1y
1<!
1=!
0;"
0<"
1A!
1B!
1-!
1*!
1O
#2600
00
0@
1/
1?
0i
1h
0y
1x
1?!
0<!
1@!
0=!
1;"
09"
1<"
0:"
1E!
0A!
0B!
1F!
1.!
0-!
1)!
0*!
0O
1N
#2700
10
1@
1i
1y
1<!
1=!
0;"
0<"
1A!
1B!
1-!
1*!
1O
#2800
00
0@
0/
0?
1.
1>
0i
0h
1g
0y
0x
1w
1C!
0?!
0<!
1D!
0@!
0=!
1;"
19"
07"
1<"
1:"
08"
1I!
0E!
0A!
0B!
0F!
1J!
1/!
0.!
0-!
1(!
0)!
0*!
0O
0N
1M
#2900
10
1@
1i
1y
1<!
1=!
0;"
0<"
1A!
1B!
1-!
1*!
1O
#3000
00
0@
1/
1?
0i
1h
0y
1x
1?!
0<!
1@!
0=!
1;"
09"
1<"
0:"
1E!
0A!
0B!
1F!
1.!
0-!
1)!
0*!
0O
1N
#3100
10
1@
1i
1y
1<!
1=!
0;"
0<"
1A!
1B!
1-!
1*!
1O
#3200
00
0@
0/
0?
0.
0>
0-
0=
0,
0<
1+
1;
0i
0h
0g
0f
0e
1d
0y
0x
0w
0v
0u
1t
1O!
0K!
0G!
0C!
0?!
0<!
1P!
0L!
0H!
0D!
0@!
0=!
1;"
19"
17"
15"
13"
01"
1<"
1:"
18"
16"
14"
02"
1U!
0Q!
0M!
0I!
0E!
0A!
0B!
0F!
0J!
0N!
0R!
1V!
12!
01!
00!
0/!
0.!
0-!
1%!
0&!
0'!
0(!
0)!
0*!
0O
0N
0M
0L
0K
1J
#3300
10
1@
1i
1y
1<!
1=!
0;"
0<"
1A!
1B!
1-!
1*!
1O
#3400
00
0@
1/
1?
0i
1h
0y
1x
1?!
0<!
1@!
0=!
1;"
09"
1<"
0:"
1E!
0A!
0B!
1F!
1.!
0-!
1)!
0*!
0O
1N
#3500
10
1@
1i
1y
1<!
1=!
0;"
0<"
1A!
1B!
1-!
1*!
1O
#3600
00
0@
0/
0?
1.
1>
0i
0h
1g
0y
0x
1w
1C!
0?!
0<!
1D!
0@!
0=!
1;"
19"
07"
1<"
1:"
08"
1I!
0E!
0A!
0B!
0F!
1J!
1/!
0.!
0-!
1(!
0)!
0*!
0O
0N
1M
#3700
10
1@
1i
1y
1<!
1=!
0;"
0<"
1A!
1B!
1-!
1*!
1O
#3800
00
0@
1/
1?
0i
1h
0y
1x
1?!
0<!
1@!
0=!
1;"
09"
1<"
0:"
1E!
0A!
0B!
1F!
1.!
0-!
1)!
0*!
0O
1N
#3900
10
1@
1i
1y
1<!
1=!
0;"
0<"
1A!
1B!
1-!
1*!
1O
#4000
00
0@
0/
0?
0.
0>
1-
1=
0i
0h
0g
1f
0y
0x
0w
1v
1G!
0C!
0?!
0<!
1H!
0D!
0@!
0=!
1;"
19"
17"
05"
1<"
1:"
18"
06"
1M!
0I!
0E!
0A!
0B!
0F!
0J!
1N!
10!
0/!
0.!
0-!
1'!
0(!
0)!
0*!
0O
0N
0M
1L
#4100
10
1@
1i
1y
1<!
1=!
0;"
0<"
1A!
1B!
1-!
1*!
1O
#4200
00
0@
1/
1?
0i
1h
0y
1x
1?!
0<!
1@!
0=!
1;"
09"
1<"
0:"
1E!
0A!
0B!
1F!
1.!
0-!
1)!
0*!
0O
1N
#4300
10
1@
1i
1y
1<!
1=!
0;"
0<"
1A!
1B!
1-!
1*!
1O
#4400
00
0@
0/
0?
1.
1>
0i
0h
1g
0y
0x
1w
1C!
0?!
0<!
1D!
0@!
0=!
1;"
19"
07"
1<"
1:"
08"
1I!
0E!
0A!
0B!
0F!
1J!
1/!
0.!
0-!
1(!
0)!
0*!
0O
0N
1M
#4500
10
1@
1i
1y
1<!
1=!
0;"
0<"
1A!
1B!
1-!
1*!
1O
#4600
00
0@
1/
1?
0i
1h
0y
1x
1?!
0<!
1@!
0=!
1;"
09"
1<"
0:"
1E!
0A!
0B!
1F!
1.!
0-!
1)!
0*!
0O
1N
#4700
10
1@
1i
1y
1<!
1=!
0;"
0<"
1A!
1B!
1-!
1*!
1O
#4800
00
0@
0/
0?
0.
0>
0-
0=
1,
1<
0i
0h
0g
0f
1e
0y
0x
0w
0v
1u
1K!
0G!
0C!
0?!
0<!
1L!
0H!
0D!
0@!
0=!
1;"
19"
17"
15"
03"
1<"
1:"
18"
16"
04"
1Q!
0M!
0I!
0E!
0A!
0B!
0F!
0J!
0N!
1R!
11!
00!
0/!
0.!
0-!
1&!
0'!
0(!
0)!
0*!
0O
0N
0M
0L
1K
#4900
10
1@
1i
1y
1<!
1=!
0;"
0<"
1A!
1B!
1-!
1*!
1O
#5000
00
0@
1/
1?
0i
1h
0y
1x
1?!
0<!
1@!
0=!
1;"
09"
1<"
0:"
1E!
0A!
0B!
1F!
1.!
0-!
1)!
0*!
0O
1N
#5100
10
1@
1i
1y
1<!
1=!
0;"
0<"
1A!
1B!
1-!
1*!
1O
#5200
00
0@
0/
0?
1.
1>
0i
0h
1g
0y
0x
1w
1C!
0?!
0<!
1D!
0@!
0=!
1;"
19"
07"
1<"
1:"
08"
1I!
0E!
0A!
0B!
0F!
1J!
1/!
0.!
0-!
1(!
0)!
0*!
0O
0N
1M
#5300
10
1@
1i
1y
1<!
1=!
0;"
0<"
1A!
1B!
1-!
1*!
1O
#5400
00
0@
1/
1?
0i
1h
0y
1x
1?!
0<!
1@!
0=!
1;"
09"
1<"
0:"
1E!
0A!
0B!
1F!
1.!
0-!
1)!
0*!
0O
1N
#5500
10
1@
1i
1y
1<!
1=!
0;"
0<"
1A!
1B!
1-!
1*!
1O
#5600
00
0@
0/
0?
0.
0>
1-
1=
0i
0h
0g
1f
0y
0x
0w
1v
1G!
0C!
0?!
0<!
1H!
0D!
0@!
0=!
1;"
19"
17"
05"
1<"
1:"
18"
06"
1M!
0I!
0E!
0A!
0B!
0F!
0J!
1N!
10!
0/!
0.!
0-!
1'!
0(!
0)!
0*!
0O
0N
0M
1L
#5700
10
1@
1i
1y
1<!
1=!
0;"
0<"
1A!
1B!
1-!
1*!
1O
#5800
00
0@
1/
1?
0i
1h
0y
1x
1?!
0<!
1@!
0=!
1;"
09"
1<"
0:"
1E!
0A!
0B!
1F!
1.!
0-!
1)!
0*!
0O
1N
#5900
10
1@
1i
1y
1<!
1=!
0;"
0<"
1A!
1B!
1-!
1*!
1O
#6000
00
0@
0/
0?
1.
1>
0i
0h
1g
0y
0x
1w
1C!
0?!
0<!
1D!
0@!
0=!
1;"
19"
07"
1<"
1:"
08"
1I!
0E!
0A!
0B!
0F!
1J!
1/!
0.!
0-!
1(!
0)!
0*!
0O
0N
1M
#6100
10
1@
1i
1y
1<!
1=!
0;"
0<"
1A!
1B!
1-!
1*!
1O
#6200
00
0@
1/
1?
0i
1h
0y
1x
1?!
0<!
1@!
0=!
1;"
09"
1<"
0:"
1E!
0A!
0B!
1F!
1.!
0-!
1)!
0*!
0O
1N
#6300
10
1@
1i
1y
1<!
1=!
0;"
0<"
1A!
1B!
1-!
1*!
1O
#6400
00
0@
0/
0?
0.
0>
0-
0=
0,
0<
0+
0;
1*
1:
0i
0h
0g
0f
0e
0d
1c
0y
0x
0w
0v
0u
0t
1s
1S!
0O!
0K!
0G!
0C!
0?!
0<!
1T!
0P!
0L!
0H!
0D!
0@!
0=!
1;"
19"
17"
15"
13"
11"
0/"
1<"
1:"
18"
16"
14"
12"
00"
1Y!
0U!
0Q!
0M!
0I!
0E!
0A!
0B!
0F!
0J!
0N!
0R!
0V!
1Z!
13!
02!
01!
00!
0/!
0.!
0-!
1$!
0%!
0&!
0'!
0(!
0)!
0*!
0O
0N
0M
0L
0K
0J
1I
#6500
10
1@
1i
1y
1<!
1=!
0;"
0<"
1A!
1B!
1-!
1*!
1O
#6600
00
0@
1/
1?
0i
1h
0y
1x
1?!
0<!
1@!
0=!
1;"
09"
1<"
0:"
1E!
0A!
0B!
1F!
1.!
0-!
1)!
0*!
0O
1N
#6700
10
1@
1i
1y
1<!
1=!
0;"
0<"
1A!
1B!
1-!
1*!
1O
#6800
00
0@
0/
0?
1.
1>
0i
0h
1g
0y
0x
1w
1C!
0?!
0<!
1D!
0@!
0=!
1;"
19"
07"
1<"
1:"
08"
1I!
0E!
0A!
0B!
0F!
1J!
1/!
0.!
0-!
1(!
0)!
0*!
0O
0N
1M
#6900
10
1@
1i
1y
1<!
1=!
0;"
0<"
1A!
1B!
1-!
1*!
1O
#7000
00
0@
1/
1?
0i
1h
0y
1x
1?!
0<!
1@!
0=!
1;"
09"
1<"
0:"
1E!
0A!
0B!
1F!
1.!
0-!
1)!
0*!
0O
1N
#7100
10
1@
1i
1y
1<!
1=!
0;"
0<"
1A!
1B!
1-!
1*!
1O
#7200
00
0@
0/
0?
0.
0>
1-
1=
0i
0h
0g
1f
0y
0x
0w
1v
1G!
0C!
0?!
0<!
1H!
0D!
0@!
0=!
1;"
19"
17"
05"
1<"
1:"
18"
06"
1M!
0I!
0E!
0A!
0B!
0F!
0J!
1N!
10!
0/!
0.!
0-!
1'!
0(!
0)!
0*!
0O
0N
0M
1L
#7300
10
1@
1i
1y
1<!
1=!
0;"
0<"
1A!
1B!
1-!
1*!
1O
#7400
00
0@
1/
1?
0i
1h
0y
1x
1?!
0<!
1@!
0=!
1;"
09"
1<"
0:"
1E!
0A!
0B!
1F!
1.!
0-!
1)!
0*!
0O
1N
#7500
10
1@
1i
1y
1<!
1=!
0;"
0<"
1A!
1B!
1-!
1*!
1O
#7600
00
0@
0/
0?
1.
1>
0i
0h
1g
0y
0x
1w
1C!
0?!
0<!
1D!
0@!
0=!
1;"
19"
07"
1<"
1:"
08"
1I!
0E!
0A!
0B!
0F!
1J!
1/!
0.!
0-!
1(!
0)!
0*!
0O
0N
1M
#7700
10
1@
1i
1y
1<!
1=!
0;"
0<"
1A!
1B!
1-!
1*!
1O
#7800
00
0@
1/
1?
0i
1h
0y
1x
1?!
0<!
1@!
0=!
1;"
09"
1<"
0:"
1E!
0A!
0B!
1F!
1.!
0-!
1)!
0*!
0O
1N
#7900
10
1@
1i
1y
1<!
1=!
0;"
0<"
1A!
1B!
1-!
1*!
1O
#8000
00
0@
0/
0?
0.
0>
0-
0=
1,
1<
0i
0h
0g
0f
1e
0y
0x
0w
0v
1u
1K!
0G!
0C!
0?!
0<!
1L!
0H!
0D!
0@!
0=!
1;"
19"
17"
15"
03"
1<"
1:"
18"
16"
04"
1Q!
0M!
0I!
0E!
0A!
0B!
0F!
0J!
0N!
1R!
11!
00!
0/!
0.!
0-!
1&!
0'!
0(!
0)!
0*!
0O
0N
0M
0L
1K
#8100
10
1@
1i
1y
1<!
1=!
0;"
0<"
1A!
1B!
1-!
1*!
1O
#8200
00
0@
1/
1?
0i
1h
0y
1x
1?!
0<!
1@!
0=!
1;"
09"
1<"
0:"
1E!
0A!
0B!
1F!
1.!
0-!
1)!
0*!
0O
1N
#8300
10
1@
1i
1y
1<!
1=!
0;"
0<"
1A!
1B!
1-!
1*!
1O
#8400
00
0@
0/
0?
1.
1>
0i
0h
1g
0y
0x
1w
1C!
0?!
0<!
1D!
0@!
0=!
1;"
19"
07"
1<"
1:"
08"
1I!
0E!
0A!
0B!
0F!
1J!
1/!
0.!
0-!
1(!
0)!
0*!
0O
0N
1M
#8500
10
1@
1i
1y
1<!
1=!
0;"
0<"
1A!
1B!
1-!
1*!
1O
#8600
00
0@
1/
1?
0i
1h
0y
1x
1?!
0<!
1@!
0=!
1;"
09"
1<"
0:"
1E!
0A!
0B!
1F!
1.!
0-!
1)!
0*!
0O
1N
#8700
10
1@
1i
1y
1<!
1=!
0;"
0<"
1A!
1B!
1-!
1*!
1O
#8800
00
0@
0/
0?
0.
0>
1-
1=
0i
0h
0g
1f
0y
0x
0w
1v
1G!
0C!
0?!
0<!
1H!
0D!
0@!
0=!
1;"
19"
17"
05"
1<"
1:"
18"
06"
1M!
0I!
0E!
0A!
0B!
0F!
0J!
1N!
10!
0/!
0.!
0-!
1'!
0(!
0)!
0*!
0O
0N
0M
1L
#8900
10
1@
1i
1y
1<!
1=!
0;"
0<"
1A!
1B!
1-!
1*!
1O
#9000
00
0@
1/
1?
0i
1h
0y
1x
1?!
0<!
1@!
0=!
1;"
09"
1<"
0:"
1E!
0A!
0B!
1F!
1.!
0-!
1)!
0*!
0O
1N
#9100
10
1@
1i
1y
1<!
1=!
0;"
0<"
1A!
1B!
1-!
1*!
1O
#9200
00
0@
0/
0?
1.
1>
0i
0h
1g
0y
0x
1w
1C!
0?!
0<!
1D!
0@!
0=!
1;"
19"
07"
1<"
1:"
08"
1I!
0E!
0A!
0B!
0F!
1J!
1/!
0.!
0-!
1(!
0)!
0*!
0O
0N
1M
#9300
10
1@
1i
1y
1<!
1=!
0;"
0<"
1A!
1B!
1-!
1*!
1O
#9400
00
0@
1/
1?
0i
1h
0y
1x
1?!
0<!
1@!
0=!
1;"
09"
1<"
0:"
1E!
0A!
0B!
1F!
1.!
0-!
1)!
0*!
0O
1N
#9500
10
1@
1i
1y
1<!
1=!
0;"
0<"
1A!
1B!
1-!
1*!
1O
#9600
00
0@
0/
0?
0.
0>
0-
0=
0,
0<
1+
1;
0i
0h
0g
0f
0e
1d
0y
0x
0w
0v
0u
1t
1O!
0K!
0G!
0C!
0?!
0<!
1P!
0L!
0H!
0D!
0@!
0=!
1;"
19"
17"
15"
13"
01"
1<"
1:"
18"
16"
14"
02"
1U!
0Q!
0M!
0I!
0E!
0A!
0B!
0F!
0J!
0N!
0R!
1V!
12!
01!
00!
0/!
0.!
0-!
1%!
0&!
0'!
0(!
0)!
0*!
0O
0N
0M
0L
0K
1J
#9700
10
1@
1i
1y
1<!
1=!
0;"
0<"
1A!
1B!
1-!
1*!
1O
